design/chiwen/test_run_dir/problems/Decoder/OneHotDecoder.vcd
$version Generated by VerilatedVcd $end
$date Thu Jan 10 17:15:34 2019
 $end
$timescale   1ns $end

 $scope module TOP $end
  $var wire  1 # clock $end
  $var wire  5 % io_in [4:0] $end
  $var wire 32 & io_out [31:0] $end
  $var wire  1 $ reset $end
  $scope module OneHotDecoder $end
   $var wire  1 ' bools_0 $end
   $var wire  1 ( bools_1 $end
   $var wire  1 1 bools_10 $end
   $var wire  1 2 bools_11 $end
   $var wire  1 3 bools_12 $end
   $var wire  1 4 bools_13 $end
   $var wire  1 5 bools_14 $end
   $var wire  1 6 bools_15 $end
   $var wire  1 7 bools_16 $end
   $var wire  1 8 bools_17 $end
   $var wire  1 9 bools_18 $end
   $var wire  1 : bools_19 $end
   $var wire  1 ) bools_2 $end
   $var wire  1 ; bools_20 $end
   $var wire  1 < bools_21 $end
   $var wire  1 = bools_22 $end
   $var wire  1 > bools_23 $end
   $var wire  1 ? bools_24 $end
   $var wire  1 @ bools_25 $end
   $var wire  1 A bools_26 $end
   $var wire  1 B bools_27 $end
   $var wire  1 C bools_28 $end
   $var wire  1 D bools_29 $end
   $var wire  1 * bools_3 $end
   $var wire  1 E bools_30 $end
   $var wire  1 F bools_31 $end
   $var wire  1 + bools_4 $end
   $var wire  1 , bools_5 $end
   $var wire  1 - bools_6 $end
   $var wire  1 . bools_7 $end
   $var wire  1 / bools_8 $end
   $var wire  1 0 bools_9 $end
   $var wire  1 # clock $end
   $var wire  5 % io_in [4:0] $end
   $var wire 32 & io_out [31:0] $end
   $var wire  1 $ reset $end
  $upscope $end
 $upscope $end
$enddefinitions $end


#0
0#
1$
b00000 %
b00000000000000000000000000000001 &
1'
0(
0)
0*
0+
0,
0-
0.
0/
00
01
02
03
04
05
06
07
08
09
0:
0;
0<
0=
0>
0?
0@
0A
0B
0C
0D
0E
0F
#1
1#
#2
0#
#3
1#
#4
0#
#5
1#
#6
0#
#7
1#
#8
0#
#9
1#
#10
0#
0$
#11
1#
#12
0#
b00001 %
b00000000000000000000000000000010 &
0'
1(
#13
1#
#14
0#
b00010 %
b00000000000000000000000000000100 &
0(
1)
#15
1#
#16
0#
b00011 %
b00000000000000000000000000001000 &
0)
1*
#17
1#
#18
0#
b00100 %
b00000000000000000000000000010000 &
0*
1+
#19
1#
#20
0#
b00101 %
b00000000000000000000000000100000 &
0+
1,
#21
1#
#22
0#
b00110 %
b00000000000000000000000001000000 &
0,
1-
#23
1#
#24
0#
b00111 %
b00000000000000000000000010000000 &
0-
1.
#25
1#
#26
0#
b01000 %
b00000000000000000000000100000000 &
0.
1/
#27
1#
#28
0#
b01001 %
b00000000000000000000001000000000 &
0/
10
#29
1#
#30
0#
b01010 %
b00000000000000000000010000000000 &
00
11
#31
1#
#32
0#
b01011 %
b00000000000000000000100000000000 &
01
12
#33
1#
#34
0#
b01100 %
b00000000000000000001000000000000 &
02
13
#35
1#
#36
0#
b01101 %
b00000000000000000010000000000000 &
03
14
#37
1#
#38
0#
b01110 %
b00000000000000000100000000000000 &
04
15
#39
1#
#40
0#
b01111 %
b00000000000000001000000000000000 &
05
16
#41
1#
#42
0#
b10000 %
b00000000000000010000000000000000 &
06
17
#43
1#
#44
0#
b10001 %
b00000000000000100000000000000000 &
07
18
#45
1#
#46
0#
b10010 %
b00000000000001000000000000000000 &
08
19
#47
1#
#48
0#
b10011 %
b00000000000010000000000000000000 &
09
1:
#49
1#
#50
0#
b10100 %
b00000000000100000000000000000000 &
0:
1;
#51
1#
#52
0#
b10101 %
b00000000001000000000000000000000 &
0;
1<
#53
1#
#54
0#
b10110 %
b00000000010000000000000000000000 &
0<
1=
#55
1#
#56
0#
b10111 %
b00000000100000000000000000000000 &
0=
1>
#57
1#
#58
0#
b11000 %
b00000001000000000000000000000000 &
0>
1?
#59
1#
#60
0#
b11001 %
b00000010000000000000000000000000 &
0?
1@
#61
1#
#62
0#
b11010 %
b00000100000000000000000000000000 &
0@
1A
#63
1#
#64
0#
b11011 %
b00001000000000000000000000000000 &
0A
1B
#65
1#
#66
0#
b11100 %
b00010000000000000000000000000000 &
0B
1C
#67
1#
#68
0#
b11101 %
b00100000000000000000000000000000 &
0C
1D
#69
1#
#70
0#
b11110 %
b01000000000000000000000000000000 &
0D
1E
